^C:\USERS\ZENERITH\DOCUMENTS\VISUAL STUDIO 2013\PROJECTS\ISSHEIMDALL\LIBRARIES\BOX2D\BUILD\VS2013\OBJ\X32\DEBUG\GLEW\GLEW.OBJ
C:\WINDOWS\SYSTEM32\TZRES.DLL
C:\USERS\ZENERITH\DOCUMENTS\VISUAL STUDIO 2013\PROJECTS\ISSHEIMDALL\LIBRARIES\BOX2D\BUILD\VS2013\OBJ\X32\DEBUG\GLEW\GLEW.OBJ
