^C:\USERS\ZENERITH\DOCUMENTS\VISUAL STUDIO 2013\PROJECTS\ISSHEIMDALL\LIBRARIES\BOX2D\HELLOWORLD\HELLOWORLD.CPP
C:\PROGRAM FILES (X86)\MICROSOFT VISUAL STUDIO 12.0\VC\BIN\1033\CLUI.DLL
C:\WINDOWS\GLOBALIZATION\SORTING\SORTDEFAULT.NLS
C:\WINDOWS\SYSTEM32\TZRES.DLL
C:\USERS\ZENERITH\DOCUMENTS\VISUAL STUDIO 2013\PROJECTS\ISSHEIMDALL\LIBRARIES\BOX2D\BOX2D\BOX2D.H
C:\USERS\ZENERITH\DOCUMENTS\VISUAL STUDIO 2013\PROJECTS\ISSHEIMDALL\LIBRARIES\BOX2D\BOX2D\COMMON\B2SETTINGS.H
C:\PROGRAM FILES (X86)\MICROSOFT VISUAL STUDIO 12.0\VC\INCLUDE\STDDEF.H
C:\PROGRAM FILES (X86)\MICROSOFT VISUAL STUDIO 12.0\VC\INCLUDE\CRTDEFS.H
C:\PROGRAM FILES (X86)\MICROSOFT VISUAL STUDIO 12.0\VC\INCLUDE\SAL.H
C:\PROGRAM FILES (X86)\MICROSOFT VISUAL STUDIO 12.0\VC\INCLUDE\CONCURRENCYSAL.H
C:\PROGRAM FILES (X86)\MICROSOFT VISUAL STUDIO 12.0\VC\INCLUDE\VADEFS.H
C:\PROGRAM FILES (X86)\MICROSOFT VISUAL STUDIO 12.0\VC\INCLUDE\ASSERT.H
C:\PROGRAM FILES (X86)\MICROSOFT VISUAL STUDIO 12.0\VC\INCLUDE\FLOAT.H
C:\PROGRAM FILES (X86)\MICROSOFT VISUAL STUDIO 12.0\VC\INCLUDE\CRTWRN.H
C:\USERS\ZENERITH\DOCUMENTS\VISUAL STUDIO 2013\PROJECTS\ISSHEIMDALL\LIBRARIES\BOX2D\BOX2D\COMMON\B2DRAW.H
C:\USERS\ZENERITH\DOCUMENTS\VISUAL STUDIO 2013\PROJECTS\ISSHEIMDALL\LIBRARIES\BOX2D\BOX2D\COMMON\B2MATH.H
C:\PROGRAM FILES (X86)\MICROSOFT VISUAL STUDIO 12.0\VC\INCLUDE\MATH.H
C:\USERS\ZENERITH\DOCUMENTS\VISUAL STUDIO 2013\PROJECTS\ISSHEIMDALL\LIBRARIES\BOX2D\BOX2D\COMMON\B2TIMER.H
C:\USERS\ZENERITH\DOCUMENTS\VISUAL STUDIO 2013\PROJECTS\ISSHEIMDALL\LIBRARIES\BOX2D\BOX2D\COLLISION\SHAPES\B2CIRCLESHAPE.H
C:\USERS\ZENERITH\DOCUMENTS\VISUAL STUDIO 2013\PROJECTS\ISSHEIMDALL\LIBRARIES\BOX2D\BOX2D\COLLISION\SHAPES\B2SHAPE.H
C:\USERS\ZENERITH\DOCUMENTS\VISUAL STUDIO 2013\PROJECTS\ISSHEIMDALL\LIBRARIES\BOX2D\BOX2D\COMMON\B2BLOCKALLOCATOR.H
C:\USERS\ZENERITH\DOCUMENTS\VISUAL STUDIO 2013\PROJECTS\ISSHEIMDALL\LIBRARIES\BOX2D\BOX2D\COLLISION\B2COLLISION.H
C:\PROGRAM FILES (X86)\MICROSOFT VISUAL STUDIO 12.0\VC\INCLUDE\LIMITS.H
C:\USERS\ZENERITH\DOCUMENTS\VISUAL STUDIO 2013\PROJECTS\ISSHEIMDALL\LIBRARIES\BOX2D\BOX2D\COLLISION\SHAPES\B2EDGESHAPE.H
C:\USERS\ZENERITH\DOCUMENTS\VISUAL STUDIO 2013\PROJECTS\ISSHEIMDALL\LIBRARIES\BOX2D\BOX2D\COLLISION\SHAPES\B2CHAINSHAPE.H
C:\USERS\ZENERITH\DOCUMENTS\VISUAL STUDIO 2013\PROJECTS\ISSHEIMDALL\LIBRARIES\BOX2D\BOX2D\COLLISION\SHAPES\B2POLYGONSHAPE.H
C:\USERS\ZENERITH\DOCUMENTS\VISUAL STUDIO 2013\PROJECTS\ISSHEIMDALL\LIBRARIES\BOX2D\BOX2D\COLLISION\B2BROADPHASE.H
C:\USERS\ZENERITH\DOCUMENTS\VISUAL STUDIO 2013\PROJECTS\ISSHEIMDALL\LIBRARIES\BOX2D\BOX2D\COLLISION\B2DYNAMICTREE.H
C:\USERS\ZENERITH\DOCUMENTS\VISUAL STUDIO 2013\PROJECTS\ISSHEIMDALL\LIBRARIES\BOX2D\BOX2D\COMMON\B2GROWABLESTACK.H
C:\PROGRAM FILES (X86)\MICROSOFT VISUAL STUDIO 12.0\VC\INCLUDE\MEMORY.H
C:\PROGRAM FILES (X86)\MICROSOFT VISUAL STUDIO 12.0\VC\INCLUDE\ALGORITHM
C:\PROGRAM FILES (X86)\MICROSOFT VISUAL STUDIO 12.0\VC\INCLUDE\XMEMORY
C:\PROGRAM FILES (X86)\MICROSOFT VISUAL STUDIO 12.0\VC\INCLUDE\XMEMORY0
C:\PROGRAM FILES (X86)\MICROSOFT VISUAL STUDIO 12.0\VC\INCLUDE\CSTDLIB
C:\PROGRAM FILES (X86)\MICROSOFT VISUAL STUDIO 12.0\VC\INCLUDE\YVALS.H
C:\PROGRAM FILES (X86)\MICROSOFT VISUAL STUDIO 12.0\VC\INCLUDE\XKEYCHECK.H
C:\PROGRAM FILES (X86)\MICROSOFT VISUAL STUDIO 12.0\VC\INCLUDE\USE_ANSI.H
C:\PROGRAM FILES (X86)\MICROSOFT VISUAL STUDIO 12.0\VC\INCLUDE\STDLIB.H
C:\PROGRAM FILES (X86)\MICROSOFT VISUAL STUDIO 12.0\VC\INCLUDE\LIMITS
C:\PROGRAM FILES (X86)\MICROSOFT VISUAL STUDIO 12.0\VC\INCLUDE\YMATH.H
C:\PROGRAM FILES (X86)\MICROSOFT VISUAL STUDIO 12.0\VC\INCLUDE\CFLOAT
C:\PROGRAM FILES (X86)\MICROSOFT VISUAL STUDIO 12.0\VC\INCLUDE\CLIMITS
C:\PROGRAM FILES (X86)\MICROSOFT VISUAL STUDIO 12.0\VC\INCLUDE\CMATH
C:\PROGRAM FILES (X86)\MICROSOFT VISUAL STUDIO 12.0\VC\INCLUDE\XTGMATH.H
C:\PROGRAM FILES (X86)\MICROSOFT VISUAL STUDIO 12.0\VC\INCLUDE\XTR1COMMON
C:\PROGRAM FILES (X86)\MICROSOFT VISUAL STUDIO 12.0\VC\INCLUDE\CWCHAR
C:\PROGRAM FILES (X86)\MICROSOFT VISUAL STUDIO 12.0\VC\INCLUDE\WCHAR.H
C:\PROGRAM FILES (X86)\MICROSOFT VISUAL STUDIO 12.0\VC\INCLUDE\SWPRINTF.INL
C:\PROGRAM FILES (X86)\MICROSOFT VISUAL STUDIO 12.0\VC\INCLUDE\WTIME.INL
C:\PROGRAM FILES (X86)\MICROSOFT VISUAL STUDIO 12.0\VC\INCLUDE\XSTDDEF
C:\PROGRAM FILES (X86)\MICROSOFT VISUAL STUDIO 12.0\VC\INCLUDE\CSTDDEF
C:\PROGRAM FILES (X86)\MICROSOFT VISUAL STUDIO 12.0\VC\INCLUDE\INITIALIZER_LIST
C:\PROGRAM FILES (X86)\MICROSOFT VISUAL STUDIO 12.0\VC\INCLUDE\NEW
C:\PROGRAM FILES (X86)\MICROSOFT VISUAL STUDIO 12.0\VC\INCLUDE\EXCEPTION
C:\PROGRAM FILES (X86)\MICROSOFT VISUAL STUDIO 12.0\VC\INCLUDE\EH.H
C:\PROGRAM FILES (X86)\MICROSOFT VISUAL STUDIO 12.0\VC\INCLUDE\MALLOC.H
C:\PROGRAM FILES (X86)\MICROSOFT VISUAL STUDIO 12.0\VC\INCLUDE\STRING.H
C:\PROGRAM FILES (X86)\MICROSOFT VISUAL STUDIO 12.0\VC\INCLUDE\XUTILITY
C:\PROGRAM FILES (X86)\MICROSOFT VISUAL STUDIO 12.0\VC\INCLUDE\UTILITY
C:\PROGRAM FILES (X86)\MICROSOFT VISUAL STUDIO 12.0\VC\INCLUDE\IOSFWD
C:\PROGRAM FILES (X86)\MICROSOFT VISUAL STUDIO 12.0\VC\INCLUDE\CSTDIO
C:\PROGRAM FILES (X86)\MICROSOFT VISUAL STUDIO 12.0\VC\INCLUDE\STDIO.H
C:\PROGRAM FILES (X86)\MICROSOFT VISUAL STUDIO 12.0\VC\INCLUDE\CSTRING
C:\PROGRAM FILES (X86)\MICROSOFT VISUAL STUDIO 12.0\VC\INCLUDE\CRTDBG.H
C:\PROGRAM FILES (X86)\MICROSOFT VISUAL STUDIO 12.0\VC\INCLUDE\TYPE_TRAITS
C:\PROGRAM FILES (X86)\MICROSOFT VISUAL STUDIO 12.0\VC\INCLUDE\XREFWRAP
C:\PROGRAM FILES (X86)\MICROSOFT VISUAL STUDIO 12.0\VC\INCLUDE\XATOMIC0.H
C:\PROGRAM FILES (X86)\MICROSOFT VISUAL STUDIO 12.0\VC\INCLUDE\INTRIN.H
C:\PROGRAM FILES (X86)\MICROSOFT VISUAL STUDIO 12.0\VC\INCLUDE\SETJMP.H
C:\PROGRAM FILES (X86)\MICROSOFT VISUAL STUDIO 12.0\VC\INCLUDE\IMMINTRIN.H
C:\PROGRAM FILES (X86)\MICROSOFT VISUAL STUDIO 12.0\VC\INCLUDE\WMMINTRIN.H
C:\PROGRAM FILES (X86)\MICROSOFT VISUAL STUDIO 12.0\VC\INCLUDE\NMMINTRIN.H
C:\PROGRAM FILES (X86)\MICROSOFT VISUAL STUDIO 12.0\VC\INCLUDE\SMMINTRIN.H
C:\PROGRAM FILES (X86)\MICROSOFT VISUAL STUDIO 12.0\VC\INCLUDE\TMMINTRIN.H
C:\PROGRAM FILES (X86)\MICROSOFT VISUAL STUDIO 12.0\VC\INCLUDE\PMMINTRIN.H
C:\PROGRAM FILES (X86)\MICROSOFT VISUAL STUDIO 12.0\VC\INCLUDE\EMMINTRIN.H
C:\PROGRAM FILES (X86)\MICROSOFT VISUAL STUDIO 12.0\VC\INCLUDE\XMMINTRIN.H
C:\PROGRAM FILES (X86)\MICROSOFT VISUAL STUDIO 12.0\VC\INCLUDE\MMINTRIN.H
C:\PROGRAM FILES (X86)\MICROSOFT VISUAL STUDIO 12.0\VC\INCLUDE\AMMINTRIN.H
C:\PROGRAM FILES (X86)\MICROSOFT VISUAL STUDIO 12.0\VC\INCLUDE\MM3DNOW.H
C:\USERS\ZENERITH\DOCUMENTS\VISUAL STUDIO 2013\PROJECTS\ISSHEIMDALL\LIBRARIES\BOX2D\BOX2D\COLLISION\B2DISTANCE.H
C:\USERS\ZENERITH\DOCUMENTS\VISUAL STUDIO 2013\PROJECTS\ISSHEIMDALL\LIBRARIES\BOX2D\BOX2D\COLLISION\B2TIMEOFIMPACT.H
C:\USERS\ZENERITH\DOCUMENTS\VISUAL STUDIO 2013\PROJECTS\ISSHEIMDALL\LIBRARIES\BOX2D\BOX2D\DYNAMICS\B2BODY.H
C:\PROGRAM FILES (X86)\MICROSOFT VISUAL STUDIO 12.0\VC\INCLUDE\MEMORY
C:\PROGRAM FILES (X86)\MICROSOFT VISUAL STUDIO 12.0\VC\INCLUDE\STDINT.H
C:\PROGRAM FILES (X86)\MICROSOFT VISUAL STUDIO 12.0\VC\INCLUDE\TYPEINFO
C:\USERS\ZENERITH\DOCUMENTS\VISUAL STUDIO 2013\PROJECTS\ISSHEIMDALL\LIBRARIES\BOX2D\BOX2D\DYNAMICS\B2FIXTURE.H
C:\USERS\ZENERITH\DOCUMENTS\VISUAL STUDIO 2013\PROJECTS\ISSHEIMDALL\LIBRARIES\BOX2D\BOX2D\DYNAMICS\B2WORLDCALLBACKS.H
C:\USERS\ZENERITH\DOCUMENTS\VISUAL STUDIO 2013\PROJECTS\ISSHEIMDALL\LIBRARIES\BOX2D\BOX2D\DYNAMICS\B2TIMESTEP.H
C:\USERS\ZENERITH\DOCUMENTS\VISUAL STUDIO 2013\PROJECTS\ISSHEIMDALL\LIBRARIES\BOX2D\BOX2D\DYNAMICS\B2WORLD.H
C:\USERS\ZENERITH\DOCUMENTS\VISUAL STUDIO 2013\PROJECTS\ISSHEIMDALL\LIBRARIES\BOX2D\BOX2D\COMMON\B2STACKALLOCATOR.H
C:\USERS\ZENERITH\DOCUMENTS\VISUAL STUDIO 2013\PROJECTS\ISSHEIMDALL\LIBRARIES\BOX2D\BOX2D\DYNAMICS\B2CONTACTMANAGER.H
C:\USERS\ZENERITH\DOCUMENTS\VISUAL STUDIO 2013\PROJECTS\ISSHEIMDALL\LIBRARIES\BOX2D\BOX2D\DYNAMICS\CONTACTS\B2CONTACT.H
C:\USERS\ZENERITH\DOCUMENTS\VISUAL STUDIO 2013\PROJECTS\ISSHEIMDALL\LIBRARIES\BOX2D\BOX2D\DYNAMICS\JOINTS\B2DISTANCEJOINT.H
C:\USERS\ZENERITH\DOCUMENTS\VISUAL STUDIO 2013\PROJECTS\ISSHEIMDALL\LIBRARIES\BOX2D\BOX2D\DYNAMICS\JOINTS\B2JOINT.H
C:\USERS\ZENERITH\DOCUMENTS\VISUAL STUDIO 2013\PROJECTS\ISSHEIMDALL\LIBRARIES\BOX2D\BOX2D\DYNAMICS\JOINTS\B2FRICTIONJOINT.H
C:\USERS\ZENERITH\DOCUMENTS\VISUAL STUDIO 2013\PROJECTS\ISSHEIMDALL\LIBRARIES\BOX2D\BOX2D\DYNAMICS\JOINTS\B2GEARJOINT.H
C:\USERS\ZENERITH\DOCUMENTS\VISUAL STUDIO 2013\PROJECTS\ISSHEIMDALL\LIBRARIES\BOX2D\BOX2D\DYNAMICS\JOINTS\B2MOTORJOINT.H
C:\USERS\ZENERITH\DOCUMENTS\VISUAL STUDIO 2013\PROJECTS\ISSHEIMDALL\LIBRARIES\BOX2D\BOX2D\DYNAMICS\JOINTS\B2MOUSEJOINT.H
C:\USERS\ZENERITH\DOCUMENTS\VISUAL STUDIO 2013\PROJECTS\ISSHEIMDALL\LIBRARIES\BOX2D\BOX2D\DYNAMICS\JOINTS\B2PRISMATICJOINT.H
C:\USERS\ZENERITH\DOCUMENTS\VISUAL STUDIO 2013\PROJECTS\ISSHEIMDALL\LIBRARIES\BOX2D\BOX2D\DYNAMICS\JOINTS\B2PULLEYJOINT.H
C:\USERS\ZENERITH\DOCUMENTS\VISUAL STUDIO 2013\PROJECTS\ISSHEIMDALL\LIBRARIES\BOX2D\BOX2D\DYNAMICS\JOINTS\B2REVOLUTEJOINT.H
C:\USERS\ZENERITH\DOCUMENTS\VISUAL STUDIO 2013\PROJECTS\ISSHEIMDALL\LIBRARIES\BOX2D\BOX2D\DYNAMICS\JOINTS\B2ROPEJOINT.H
C:\USERS\ZENERITH\DOCUMENTS\VISUAL STUDIO 2013\PROJECTS\ISSHEIMDALL\LIBRARIES\BOX2D\BOX2D\DYNAMICS\JOINTS\B2WELDJOINT.H
C:\USERS\ZENERITH\DOCUMENTS\VISUAL STUDIO 2013\PROJECTS\ISSHEIMDALL\LIBRARIES\BOX2D\BOX2D\DYNAMICS\JOINTS\B2WHEELJOINT.H
